﻿
[

  {
    "_id": "co-10",
    "_parentId": "course",
    "_type": "page",
    "_classes": "",
    "title": "نظرة عامة",
    "displayTitle": "نظرة عامة",
    "pageBody": "",
    "body": "تعرف على الأسباب التي جعلتنا نقوم بإنشاء برامج شركاء تسويق فيسبوك وInstagram.",
    "_graphic": {
      "alt": "",
      "src": "course/en/images/00_contentObjects/1.png",
      "image": "course/en/images/00_contentObjects/1.png"
    },
    "linkText": "عرض",
    "height": "570",
    "durationLabel": "المدة:",
    "duration": "دقيقتان",
    "_pageLevelProgress": {
      "_isEnabled": true
    }
  },
  {
    "_id": "co-20",
    "_parentId": "course",
    "_type": "page",
    "_classes": "",
    "title": "الشارة والتخصصات",
    "displayTitle": "الشارة والتخصصات",
    "pageBody": "",
    "body": "تعرف على كيفية حصول الشركات على شارة شريك تسويق فيسبوك أو Instagram، والتي تثبت ما تتمتع به من إمكانات في تخصيص أو أكثر من بين سبعة تخصصات.",
    "_graphic": {
      "alt": "",
      "src": "course/en/images/00_contentObjects/2.png",
      "image": "course/en/images/00_contentObjects/2.png"
    },
    "linkText": "عرض",
    "height": "570",
    "durationLabel": "المدة:",
    "duration": "دقيقتان",
    "_pageLevelProgress": {
      "_isEnabled": true
    }
  },
  {
    "_id": "co-50",
    "_parentId": "course",
    "_type": "page",
    "_classes": "",
    "title": "اختيار الشريك المناسب",
    "displayTitle": "اختيار الشريك المناسب",
    "pageBody": "",
    "body": "نوضح هنا الأسباب التي تدعو إلى مراعاة بعض الاعتبارات المهمة قبل اختيار مقدم الخدمة الأفضل لتلبية احتياجات نشاطك التجاري.",
    "_graphic": {
      "alt": "",
      "src": "course/en/images/00_contentObjects/3.png",
      "image": "course/en/images/00_contentObjects/3.png"
    },
    "linkText": "عرض",
    "height": "570",
    "durationLabel": "المدة:",
    "duration": "دقيقتان",
    "_pageLevelProgress": {
      "_isEnabled": true
    }
  },
  {
    "_id": "co-60",
    "_parentId": "course",
    "_type": "page",
    "_classes": "",
    "title": "قصص النجاح",
    "displayTitle": "قصص النجاح",
    "pageBody": "",
    "body": "تعرف على كيفية تحقيق المعلنين للنجاح من خلال التعاون مع شركاء تسويق فيسبوك وInstagram.",
    "_graphic": {
      "alt": "",
      "src": "course/en/images/00_contentObjects/4.png",
      "image": "course/en/images/00_contentObjects/4.png"
    },
    "linkText": "عرض",
    "height": "570",
    "durationLabel": "المدة:",
    "duration": "دقيقتان",
    "_pageLevelProgress": {
      "_isEnabled": true
    }
  }
]
